{
  "message" : "New Music Friday!",
  "playlists" : {
    "href" : "https://api.spotify.com/v1/browse/featured-playlists?country=SE&timestamp=2022-09-16T14%3A42%3A13&offset=0&limit=5",
    "items" : [ {
      "collaborative" : false,
      "description" : "Äntligen fredag och ny musik! Happy New Music Friday!",
      "external_urls" : {
        "spotify" : "https://open.spotify.com/playlist/37i9dQZF1DXcecv7ESbOPu"
      },
      "href" : "https://api.spotify.com/v1/playlists/37i9dQZF1DXcecv7ESbOPu",
      "id" : "37i9dQZF1DXcecv7ESbOPu",
      "images" : [ {
        "height" : null,
        "url" : "https://i.scdn.co/image/ab67706f00000003069a4dce1724d0b60dc6c5b5",
        "width" : null
      } ],
      "name" : "New Music Friday Sweden",
      "owner" : {
        "display_name" : "Spotify",
        "external_urls" : {
          "spotify" : "https://open.spotify.com/user/spotify"
        },
        "href" : "https://api.spotify.com/v1/users/spotify",
        "id" : "spotify",
        "type" : "user",
        "uri" : "spotify:user:spotify"
      },
      "primary_color" : null,
      "public" : null,
      "snapshot_id" : "MTY2MzI3OTIwMCwwMDAwMDAwMDRjMGYyYjU2ZDkyMjE1YjM5ZDc0MzBmNTc0NzBjZmFj",
      "tracks" : {
        "href" : "https://api.spotify.com/v1/playlists/37i9dQZF1DXcecv7ESbOPu/tracks",
        "total" : 104
      },
      "type" : "playlist",
      "uri" : "spotify:playlist:37i9dQZF1DXcecv7ESbOPu"
    }, {
      "collaborative" : false,
      "description" : "Håll det 100.",
      "external_urls" : {
        "spotify" : "https://open.spotify.com/playlist/37i9dQZF1DWXfgo3OOonqa"
      },
      "href" : "https://api.spotify.com/v1/playlists/37i9dQZF1DWXfgo3OOonqa",
      "id" : "37i9dQZF1DWXfgo3OOonqa",
      "images" : [ {
        "height" : null,
        "url" : "https://i.scdn.co/image/ab67706f0000000309c36c4c0a32a14e0caa5f40",
        "width" : null
      } ],
      "name" : "100",
      "owner" : {
        "display_name" : "Spotify",
        "external_urls" : {
          "spotify" : "https://open.spotify.com/user/spotify"
        },
        "href" : "https://api.spotify.com/v1/users/spotify",
        "id" : "spotify",
        "type" : "user",
        "uri" : "spotify:user:spotify"
      },
      "primary_color" : null,
      "public" : null,
      "snapshot_id" : "MTY2MzI3OTIwMCwwMDAwMDAwMGQ2OTAzNDE4OTkzMWQ5ZTVlNzM3YTk1YTJjZjc3YmY5",
      "tracks" : {
        "href" : "https://api.spotify.com/v1/playlists/37i9dQZF1DWXfgo3OOonqa/tracks",
        "total" : 85
      },
      "type" : "playlist",
      "uri" : "spotify:playlist:37i9dQZF1DWXfgo3OOonqa"
    }, {
      "collaborative" : false,
      "description" : "De senaste hitsen du behöver ha koll på.",
      "external_urls" : {
        "spotify" : "https://open.spotify.com/playlist/37i9dQZF1DXc4CrXgl8cum"
      },
      "href" : "https://api.spotify.com/v1/playlists/37i9dQZF1DXc4CrXgl8cum",
      "id" : "37i9dQZF1DXc4CrXgl8cum",
      "images" : [ {
        "height" : null,
        "url" : "https://i.scdn.co/image/ab67706f0000000356e636fd84c35d13d2d66144",
        "width" : null
      } ],
      "name" : "Get Your Hits Together",
      "owner" : {
        "display_name" : "Spotify",
        "external_urls" : {
          "spotify" : "https://open.spotify.com/user/spotify"
        },
        "href" : "https://api.spotify.com/v1/users/spotify",
        "id" : "spotify",
        "type" : "user",
        "uri" : "spotify:user:spotify"
      },
      "primary_color" : null,
      "public" : null,
      "snapshot_id" : "MTY2MzI3OTIwMCwwMDAwMDAwMGQ1NmM3MzJkOWM4MjRkODE1ZjI3ODk4MTEyNWUzMWEw",
      "tracks" : {
        "href" : "https://api.spotify.com/v1/playlists/37i9dQZF1DXc4CrXgl8cum/tracks",
        "total" : 80
      },
      "type" : "playlist",
      "uri" : "spotify:playlist:37i9dQZF1DXc4CrXgl8cum"
    }, {
      "collaborative" : false,
      "description" : "Det bästa från svensk & internationell pop.",
      "external_urls" : {
        "spotify" : "https://open.spotify.com/playlist/37i9dQZF1DX7FV7CCq9byu"
      },
      "href" : "https://api.spotify.com/v1/playlists/37i9dQZF1DX7FV7CCq9byu",
      "id" : "37i9dQZF1DX7FV7CCq9byu",
      "images" : [ {
        "height" : null,
        "url" : "https://i.scdn.co/image/ab67706f0000000392ddd597502b989975648e78",
        "width" : null
      } ],
      "name" : "Ny Pop",
      "owner" : {
        "display_name" : "Spotify",
        "external_urls" : {
          "spotify" : "https://open.spotify.com/user/spotify"
        },
        "href" : "https://api.spotify.com/v1/users/spotify",
        "id" : "spotify",
        "type" : "user",
        "uri" : "spotify:user:spotify"
      },
      "primary_color" : null,
      "public" : null,
      "snapshot_id" : "MTY2MzI3OTIwMCwwMDAwMDAwMGU3ZjlhMDE3NDgyNjQ3ZjhmOTMxZDM5YWY2ODcxM2Fk",
      "tracks" : {
        "href" : "https://api.spotify.com/v1/playlists/37i9dQZF1DX7FV7CCq9byu/tracks",
        "total" : 70
      },
      "type" : "playlist",
      "uri" : "spotify:playlist:37i9dQZF1DX7FV7CCq9byu"
    }, {
      "collaborative" : false,
      "description" : "Den bästa och största rocklistan i Sverige! Cover: Ghost",
      "external_urls" : {
        "spotify" : "https://open.spotify.com/playlist/37i9dQZF1DXdiF2k2CLnQA"
      },
      "href" : "https://api.spotify.com/v1/playlists/37i9dQZF1DXdiF2k2CLnQA",
      "id" : "37i9dQZF1DXdiF2k2CLnQA",
      "images" : [ {
        "height" : null,
        "url" : "https://i.scdn.co/image/ab67706f00000003d11908425d4ea65f01f87e29",
        "width" : null
      } ],
      "name" : "VOLUME SWEDEN",
      "owner" : {
        "display_name" : "Spotify",
        "external_urls" : {
          "spotify" : "https://open.spotify.com/user/spotify"
        },
        "href" : "https://api.spotify.com/v1/users/spotify",
        "id" : "spotify",
        "type" : "user",
        "uri" : "spotify:user:spotify"
      },
      "primary_color" : null,
      "public" : null,
      "snapshot_id" : "MTY2MzI3OTIwMCwwMDAwMDAwMDBlNzdlZTRjNTY1NTFhY2JjMGM2OTUwMThjOGQ5NzQ0",
      "tracks" : {
        "href" : "https://api.spotify.com/v1/playlists/37i9dQZF1DXdiF2k2CLnQA/tracks",
        "total" : 80
      },
      "type" : "playlist",
      "uri" : "spotify:playlist:37i9dQZF1DXdiF2k2CLnQA"
    } ],
    "limit" : 5,
    "next" : "https://api.spotify.com/v1/browse/featured-playlists?country=SE&timestamp=2022-09-16T14%3A42%3A13&offset=5&limit=5",
    "offset" : 0,
    "previous" : null,
    "total" : 12
  }
}